,Sex,GPA,Seat,Alchol,WtFeel,Height,IdealHt,momheight,dadheight,Hand,Looks,Friends,Cheat,Smoke
0,Female,2.600,M,15,AboutRt,64.0,66.00,64.0,70.0,Right,15,Opposite,No,No
1,Male,2.700,M,14,AboutRt,69.0,76.00,67.0,68.0,Left,13,Same,No,No
2,Female,3.000,F,*,AboutRt,66.0,68.00,61.0,70.0,Right,10,Opposite,No,Yes
3,Female,3.110,F,10,AboutRt,63.0,65.00,62.0,68.0,Right,12,Same,No,No
4,Male,3.400,B,30,OverWt,72.0,74.00,66.0,69.0,Right,14,Same,No,No
5,Female,3.430,M,20,AboutRt,67.0,67.00,68.0,69.0,Right,14,Opposite,No,No
6,Male,3.700,F,15,*,69.0,73.00,67.0,69.0,Right,6,Opposite,No,No
7,Male,3.700,B,15,AboutRt,74.0,75.00,69.0,76.0,Right,17,Opposite,No,No
8,Male,3.770,M,0,UnderWt,72.0,75.00,*,72.0,Right,13,*,No,No
9,Female,3.500,F,0,AboutRt,63.0,63.00,*,*,Right,1,Same,No,No
10,Male,3.000,F,*,OverWt,68.5,*,64.0,*,Right,10,Same,No,Yes
11,Male,3.000,M,0,AboutRt,70.0,74.00,61.0,74.0,Right,10,Same,No,No
12,Male,3.500,F,0,AboutRt,71.0,71.00,*,73.0,Right,20,Opposite,No,No
13,Male,3.250,M,0,UnderWt,68.0,72.00,63.0,73.0,Right,15,Opposite,No,No
14,Female,2.830,M,0,AboutRt,60.0,65.00,60.0,68.0,Right,5,Opposite,No,No
15,Male,2.620,F,0,OverWt,71.0,74.00,61.0,67.0,Right,5,Opposite,No,No
16,Female,3.150,M,*,AboutRt,68.0,69.00,67.0,72.0,Left,10,Opposite,No,No
17,Female,4.200,M,1,AboutRt,67.0,67.00,70.0,76.0,Right,20,*,Yes,Yes
18,Female,3.700,F,0,OverWt,66.0,68.00,60.0,71.0,Right,10,Opposite,Yes,No
19,Male,4.380,M,2,UnderWt,69.0,74.00,64.0,64.0,Right,15,Opposite,No,No
20,Male,3.650,M,*,UnderWt,69.0,72.00,60.0,65.0,Right,20,Same,No,No
21,Male,3.600,M,0,AboutRt,68.0,70.00,63.0,65.0,Right,13,Opposite,No,No
22,Female,3.000,M,1,AboutRt,67.0,69.00,68.0,72.0,Right,15,Opposite,No,No
23,Female,2.250,M,*,AboutRt,65.0,65.00,64.0,70.0,Right,15,Opposite,No,No
24,Female,4.030,M,*,AboutRt,61.0,66.00,*,*,Right,10,Opposite,No,No
25,Female,2.540,M,2,AboutRt,61.0,69.00,64.0,64.0,Right,13,Opposite,No,No
26,Female,2.600,M,0,OverWt,64.0,64.00,63.0,72.0,Right,11,Opposite,No,No
27,Female,*,M,1,AboutRt,68.0,64.00,64.0,71.0,Right,12,Same,Yes,No
28,Male,3.000,B,10,UnderWt,69.0,69.00,*,*,Right,15,Opposite,No,No
29,Male,2.930,M,*,OverWt,68.0,72.00,62.0,67.0,Right,12,Opposite,No,No
30,Male,3.200,B,12,AboutRt,72.0,75.00,67.0,71.0,Right,10,Opposite,No,No
31,Female,*,B,3,OverWt,68.0,68.00,*,*,Left,10,Same,No,No
32,Female,3.000,M,*,AboutRt,64.0,66.00,63.0,71.0,Right,12,Opposite,No,No
33,Female,3.400,F,1,AboutRt,65.5,68.00,62.0,70.0,Left,*,Opposite,No,No
34,Female,2.500,M,0,*,67.0,67.00,66.0,70.0,Right,17,Same,No,No
35,Female,3.000,M,0,*,70.0,70.00,*,*,Right,10,Same,No,No
36,Female,3.510,M,8,AboutRt,67.0,67.00,69.0,74.0,Right,15,Same,No,No
37,Female,2.370,M,0,AboutRt,62.5,65.00,65.5,68.0,Right,15,Same,No,No
38,Female,*,M,0,AboutRt,67.0,*,*,*,Right,10,Same,No,*
39,Female,3.500,M,0,AboutRt,67.0,67.00,*,*,Left,13,Same,No,No
40,Female,3.000,B,0,AboutRt,62.0,65.00,61.0,65.0,Right,10,Same,Yes,No
41,Female,2.900,M,0,OverWt,62.0,65.00,57.0,65.0,Right,5,Opposite,No,No
42,Female,3.900,M,0,AboutRt,64.0,64.00,62.0,63.0,Right,5,Same,Yes,No
43,Female,2.650,M,1,AboutRt,66.0,68.00,66.0,73.0,Right,13,Opposite,No,No
44,Female,3.500,M,3,AboutRt,65.0,65.00,64.0,67.0,Right,12,Opposite,No,No
45,Female,3.300,M,3,AboutRt,67.0,66.00,65.0,70.0,Right,13,Opposite,No,No
46,Male,3.400,M,5,AboutRt,64.0,68.00,64.0,64.0,Right,12,Same,Yes,No
47,Male,3.600,M,0,AboutRt,76.0,77.00,65.0,78.0,Right,12,Same,No,No
48,Male,3.210,M,0,UnderWt,68.0,70.00,64.0,65.0,Right,8,Opposite,No,No
49,Male,3.100,B,0,AboutRt,68.0,70.00,62.0,69.0,Right,12,Same,No,No
50,Male,3.850,M,1,OverWt,70.0,73.00,60.0,69.0,Right,7,Opposite,No,No
51,Male,3.200,M,2,AboutRt,62.0,*,*,*,Right,12,Opposite,No,No
52,Male,2.500,B,3,AboutRt,69.0,69.00,42.0,32.0,Left,13,Opposite,No,Yes
53,Male,2.500,M,12,AboutRt,67.0,70.00,62.0,70.0,Right,15,Same,No,No
54,Male,*,M,12,AboutRt,76.5,76.00,68.0,73.5,Right,13,Same,No,No
55,Female,2.900,M,2,AboutRt,64.5,67.00,66.0,70.0,Right,12,*,No,No
56,Female,4.200,M,0,AboutRt,70.0,70.00,65.0,77.0,Right,8,Same,No,No
57,Female,2.800,F,0,AboutRt,63.0,64.00,56.0,62.0,Right,18,Same,No,No
58,Male,2.600,M,0,OverWt,72.0,73.50,62.0,68.0,Right,16,Opposite,No,No
59,Male,3.050,B,8,AboutRt,64.0,70.00,61.0,63.0,Right,10,Opposite,No,No
60,Male,3.700,F,3,AboutRt,70.0,74.00,62.0,70.0,Right,11,Opposite,No,Yes
61,Male,4.000,F,9,AboutRt,68.0,72.00,66.0,68.0,Right,12,Same,No,No
62,Female,3.500,B,9,AboutRt,65.0,67.00,64.0,71.0,Right,10,Opposite,No,No
63,Female,3.220,F,0,OverWt,60.0,64.00,64.0,69.0,Right,18,Opposite,No,No
64,Female,2.900,B,2,*,69.0,70.00,64.0,75.0,Right,20,Opposite,No,Yes
65,Male,3.250,B,*,OverWt,73.0,*,*,72.0,Right,20,Same,No,No
66,Male,3.260,F,0,AboutRt,76.5,78.00,68.0,72.0,Right,10,Same,Yes,No
67,Female,3.000,F,0,AboutRt,64.0,67.00,63.0,67.0,Right,15,Same,No,No
68,Female,*,M,*,AboutRt,62.0,66.00,62.0,66.0,Right,10,Opposite,No,No
69,Male,2.010,M,0,AboutRt,72.0,74.00,*,*,Right,15,Opposite,No,No
70,Female,3.710,F,0,*,63.0,67.00,62.0,65.0,Right,5,Same,Yes,No
71,Female,3.870,M,5,AboutRt,64.0,69.00,69.0,70.0,Right,10,Opposite,No,No
72,Male,3.260,F,0,AboutRt,64.0,72.00,54.0,60.0,Right,10,Opposite,No,No
73,Male,2.500,M,10,AboutRt,71.0,72.00,63.0,70.0,Right,13,Opposite,No,No
74,Male,2.900,M,3,UnderWt,73.0,73.00,64.0,67.0,Left,20,Opposite,No,Yes
75,Female,3.600,M,0,*,62.0,65.00,62.0,68.0,Right,3,Same,No,No
76,Male,3.900,M,0,UnderWt,72.0,72.00,69.0,72.0,Right,12,Opposite,No,No
77,Male,2.000,F,*,AboutRt,71.0,71.00,65.0,65.0,Right,10,Same,No,No
78,Male,3.200,M,2,AboutRt,65.0,69.00,61.0,65.0,Right,20,Opposite,No,No
79,Female,3.300,M,4,OverWt,72.0,72.00,65.0,72.0,Right,11,Same,No,No
80,Female,2.800,M,0,OverWt,63.0,65.00,60.0,69.0,Right,14,Same,No,No
81,Female,3.800,M,*,AboutRt,67.0,67.00,69.0,66.0,Right,10,Opposite,No,No
82,Male,3.000,M,*,AboutRt,69.0,72.00,64.0,72.0,Right,10,Opposite,No,No
83,Female,2.230,M,0,OverWt,63.0,66.00,*,*,Right,13,Same,No,No
84,Female,3.876,F,0,AboutRt,68.0,68.00,64.0,67.0,Right,1,Opposite,Yes,No
85,Female,3.010,M,0,AboutRt,64.0,66.00,67.0,*,Right,10,Opposite,No,No
86,Male,2.500,M,0,OverWt,66.0,70.00,63.0,64.0,Right,20,Same,No,No
87,Female,3.000,M,3,OverWt,72.0,72.00,70.0,76.0,Right,16,Opposite,No,No
88,Female,2.790,M,0,OverWt,59.5,61.50,59.0,65.0,Right,10,Same,No,No
89,Female,3.800,M,0,AboutRt,65.0,67.00,70.0,70.0,Right,5,Opposite,No,No
90,Female,3.250,F,3,AboutRt,68.0,68.00,60.0,70.0,Right,12,Opposite,No,No
91,Female,2.800,M,0,OverWt,66.0,67.00,*,*,Right,10,Same,No,Yes
92,Male,3.390,F,0,UnderWt,73.0,75.00,68.0,*,Right,10,Opposite,No,No
93,Female,2.640,M,0,AboutRt,65.0,62.00,*,*,Right,10,Opposite,No,No
94,Female,3.650,M,0,AboutRt,61.0,64.00,59.0,67.0,Right,12,Opposite,No,No
95,Female,3.400,F,0,OverWt,66.0,68.00,64.0,69.0,Right,9,Same,No,No
96,Female,3.330,F,0,OverWt,62.5,68.00,67.0,71.5,Right,3,Opposite,No,No
97,Female,3.900,F,4,OverWt,65.0,65.00,62.0,70.0,Right,1,Same,Yes,No
98,Female,2.540,M,1,UnderWt,65.0,68.00,63.0,70.0,Right,15,Opposite,No,No
99,Female,2.800,M,0,AboutRt,63.0,68.00,61.0,65.0,Left,10,Opposite,Yes,No
100,Male,3.500,M,0,OverWt,68.0,72.00,62.0,65.0,Right,15,Same,No,No
101,Male,3.100,M,*,AboutRt,67.0,71.00,62.0,65.0,Right,5,Opposite,No,No
102,Male,2.660,M,3,AboutRt,70.0,74.00,65.0,72.0,Right,17,Opposite,No,No
103,Male,1.910,M,4,OverWt,70.0,74.00,61.0,68.0,Right,17,Opposite,No,No
104,Male,2.800,M,22,AboutRt,65.0,68.00,61.0,68.0,Right,13,Opposite,No,No
105,Female,2.800,M,2,OverWt,70.0,71.00,68.0,71.0,Right,1,Same,No,No
106,Male,2.700,M,*,AboutRt,70.0,74.00,64.0,69.0,Right,13,Opposite,No,No
107,Female,3.800,F,0,AboutRt,64.0,*,64.0,67.0,Right,3,Same,No,No
108,Female,3.240,F,*,AboutRt,63.0,67.00,65.0,66.0,Right,11,Same,No,No
109,Female,2.580,B,10,AboutRt,68.0,67.00,69.0,72.0,Right,13,Opposite,No,No
110,Female,3.170,M,10,AboutRt,63.5,66.00,64.0,69.0,Right,10,Same,No,No
111,Female,2.600,M,*,AboutRt,67.5,70.00,70.0,72.0,Right,12,Same,No,No
112,Female,2.580,M,1,OverWt,66.0,68.00,65.0,71.0,Right,10,Same,No,No
113,Female,2.000,F,0,AboutRt,66.0,69.00,63.0,72.0,Right,10,Opposite,No,No
114,Female,3.440,F,0,AboutRt,63.0,65.00,*,*,Right,10,Opposite,No,No
115,Female,2.500,M,0,AboutRt,61.0,64.00,61.0,65.0,Right,10,Opposite,*,No
116,Female,2.900,B,20,OverWt,63.0,63.00,65.0,72.0,Right,17,Opposite,Yes,No
117,Female,2.700,M,12,AboutRt,61.0,66.00,60.0,67.0,Right,13,Opposite,No,No
118,Male,3.500,M,*,AboutRt,72.0,72.00,62.0,70.0,Right,18,Opposite,No,No
119,Male,3.000,M,0,OverWt,70.0,72.00,62.0,71.0,Right,15,Opposite,No,No
120,Male,2.440,F,0,AboutRt,71.0,71.00,61.0,67.0,Right,10,Opposite,No,No
121,Male,2.000,M,0,AboutRt,71.0,74.00,65.0,68.0,Right,18,Opposite,No,No
122,Male,3.340,M,12,UnderWt,67.0,63.00,*,*,Right,10,Same,No,No
123,Male,3.830,M,*,AboutRt,69.0,73.00,*,*,Right,13,Same,No,No
124,Male,1.920,F,5,AboutRt,72.0,72.00,62.0,64.0,Right,10,Same,No,No
125,Male,2.700,M,*,UnderWt,74.0,77.00,*,*,Left,10,Same,No,No
126,Female,3.900,M,0,AboutRt,63.0,66.00,*,*,Right,10,Opposite,Yes,No
127,Female,2.330,M,0,AboutRt,61.0,64.00,60.0,62.0,Right,15,Opposite,No,No
128,Female,*,M,0,AboutRt,66.0,68.00,65.0,70.0,Right,15,Opposite,No,No
129,Female,1.960,F,1,AboutRt,63.0,67.00,61.0,63.0,Right,17,Opposite,No,No
130,Female,3.000,M,3,AboutRt,66.0,69.00,62.0,67.0,Right,5,Same,No,No
131,Female,3.000,F,1,AboutRt,67.0,69.00,*,*,Left,12,Same,No,Yes
132,Female,3.400,B,0,AboutRt,64.0,65.00,*,*,Right,10,Same,No,No
133,Female,2.050,F,0,AboutRt,66.0,65.00,62.0,68.0,Right,10,Same,No,No
134,Female,3.100,M,18,OverWt,68.0,65.00,63.0,69.0,Right,12,Opposite,No,Yes
135,Female,3.000,M,*,OverWt,62.0,65.00,62.0,68.0,Right,5,Opposite,No,No
136,Female,3.000,M,*,OverWt,66.0,68.00,67.0,70.0,Right,15,Opposite,No,No
137,Female,*,M,0,AboutRt,62.0,64.00,60.0,*,Right,*,Same,*,No
138,Female,3.250,M,3,AboutRt,63.0,67.00,62.0,69.0,Right,20,Opposite,No,No
139,Female,3.920,B,0,AboutRt,66.0,68.00,62.0,72.0,Right,7,Opposite,No,No
140,Female,4.000,F,0,AboutRt,66.0,68.00,65.0,69.0,Left,5,Opposite,No,No
141,Female,3.000,B,20,AboutRt,69.0,69.00,66.0,70.0,Right,15,Opposite,No,No
142,Male,3.260,M,25,OverWt,74.0,74.00,*,*,Right,15,Opposite,No,Yes
143,Male,2.800,*,0,AboutRt,70.0,73.00,62.0,67.0,Right,13,Same,No,No
144,Female,2.840,B,2,UnderWt,68.0,*,65.0,73.0,Right,15,Opposite,No,No
145,Male,2.800,B,10,AboutRt,68.0,72.00,61.0,73.0,Right,13,Opposite,No,No
146,Male,2.870,B,14,AboutRt,71.0,76.00,60.0,73.0,Right,15,Same,No,No
147,Female,2.100,M,15,AboutRt,64.0,66.00,65.0,74.0,Right,5,Opposite,No,No
148,Female,2.770,M,20,AboutRt,69.0,69.00,67.0,74.0,Right,13,Opposite,No,No
149,Male,2.950,B,20,AboutRt,72.0,72.00,64.0,67.0,Right,14,Same,No,Yes
150,Male,3.700,M,15,AboutRt,63.0,69.00,63.0,63.0,Right,15,Same,No,No
151,Female,3.890,F,3,AboutRt,62.0,69.00,65.0,*,Right,12,Opposite,No,Yes
152,Female,3.500,F,1,AboutRt,65.0,67.00,63.0,70.0,Right,15,Opposite,No,No
153,Female,*,M,0,AboutRt,61.0,63.00,*,*,Right,10,Same,No,No
154,Female,3.000,M,0,AboutRt,67.0,67.00,64.0,69.0,Left,10,Opposite,No,No
155,Male,3.880,M,2,AboutRt,69.0,72.00,63.0,65.0,Right,18,Opposite,No,No
156,Female,3.000,M,0,UnderWt,64.0,66.00,*,*,Right,10,Same,Yes,No
157,Female,4.000,B,0,AboutRt,62.0,65.00,*,*,Right,5,Same,No,No
158,Female,3.200,B,7,OverWt,64.0,66.00,*,*,Right,10,Opposite,No,No
159,Female,3.200,M,0,AboutRt,66.0,69.00,67.0,67.0,Right,12,Same,No,No
160,Female,3.570,M,*,AboutRt,63.0,66.00,62.0,70.0,Right,6,*,No,No
161,Female,3.000,M,0,AboutRt,61.0,66.00,66.0,66.0,Right,10,Opposite,No,No
162,Female,2.960,M,2,AboutRt,67.0,67.00,64.0,72.0,Right,9,Opposite,No,No
163,Female,2.500,B,7,AboutRt,67.0,68.00,63.0,71.0,Right,15,Opposite,No,No
164,Female,2.670,F,0,UnderWt,63.5,65.00,65.0,71.0,Right,12,Opposite,Yes,No
165,Female,3.000,F,0,UnderWt,60.0,62.00,64.0,66.0,Right,13,Opposite,No,No
166,Female,2.700,M,0,AboutRt,67.0,66.00,65.0,68.0,Right,10,Opposite,No,No
167,Female,3.800,M,0,AboutRt,61.0,65.00,59.0,70.0,Right,12,Opposite,No,No
168,Female,2.500,M,0,AboutRt,64.0,67.00,62.0,*,Right,7,Opposite,No,No
169,Female,3.100,F,4,AboutRt,61.0,65.00,*,*,Right,15,Opposite,No,Yes
170,Female,3.500,B,*,OverWt,68.0,68.00,67.0,*,Right,10,Same,No,No
171,Female,3.870,M,10,AboutRt,63.0,66.00,65.0,64.0,Right,10,Opposite,No,No
172,Female,3.700,F,0,UnderWt,62.0,64.00,64.0,66.0,Right,18,Opposite,*,No
173,Female,3.400,M,5,AboutRt,67.0,66.00,66.0,71.0,Right,15,Opposite,No,No
174,Female,4.100,F,0,OverWt,63.0,63.00,*,*,Right,10,Same,No,No
175,Female,3.540,F,0,AboutRt,60.0,62.00,62.0,65.0,Right,1,Opposite,No,No
176,Male,3.800,M,0,AboutRt,72.0,73.00,65.0,75.0,Right,5,Opposite,No,No
177,Male,3.210,F,0,AboutRt,67.75,72.00,65.0,66.0,Right,10,Opposite,No,No
178,Male,3.000,B,12,AboutRt,70.0,73.00,65.0,73.0,Left,*,Same,No,No
179,Male,2.040,M,14,AboutRt,67.0,71.00,60.0,*,Right,17,Opposite,No,No
180,Male,2.800,M,10,AboutRt,67.0,72.00,63.0,65.0,Right,20,Opposite,No,No
181,Female,2.400,M,15,OverWt,64.5,67.00,65.5,66.0,Right,10,Opposite,No,No
182,Female,2.900,M,10,OverWt,60.5,65.00,62.0,67.0,Right,*,Same,No,No
183,Male,2.380,M,36,UnderWt,74.0,72.00,*,72.0,Right,8,Same,No,Yes
184,Female,3.830,M,3,AboutRt,69.5,71.00,63.0,74.0,Right,13,Opposite,No,No
185,Female,2.900,M,5,AboutRt,66.0,68.00,64.0,74.0,Right,3,Opposite,No,No
186,Female,2.910,M,1,OverWt,65.0,68.00,64.0,*,Left,15,Same,No,No
187,Female,2.900,B,5,AboutRt,65.0,66.00,62.0,67.0,Right,3,Opposite,No,No
188,Male,2.040,B,3,OverWt,73.0,74.00,67.0,74.0,Right,16,Opposite,No,No
189,Female,3.670,M,0,OverWt,63.0,66.00,60.0,72.0,Right,12,Same,No,No
190,Female,3.000,M,4,AboutRt,67.0,68.00,65.0,*,Right,10,Same,No,No
191,Male,3.300,F,*,AboutRt,66.0,68.00,69.0,71.0,Right,5,Opposite,No,No
192,Female,3.600,B,7,AboutRt,68.0,69.00,66.0,74.0,Right,8,Opposite,No,No
193,Female,3.500,M,8,AboutRt,68.0,68.00,62.0,71.0,Right,10,Same,No,No
194,Male,3.000,M,25,*,74.0,74.76,67.0,72.0,Right,12,Same,No,No
195,Male,3.700,M,10,AboutRt,70.0,73.00,64.0,71.0,Left,20,Opposite,No,No
196,Female,*,F,*,AboutRt,65.0,*,63.0,71.0,Right,5,Opposite,Yes,No
197,Male,3.400,B,0,AboutRt,72.0,73.00,67.0,69.0,Right,10,Opposite,No,No
198,Female,3.330,M,0,AboutRt,63.0,67.00,65.0,68.0,Right,11,Same,No,No
199,Male,4.060,B,2,AboutRt,70.0,74.00,66.0,73.0,Right,20,Same,No,No
200,Male,3.800,F,0,AboutRt,75.0,73.00,62.0,76.0,Left,16,Opposite,No,No
201,Male,4.000,M,9,AboutRt,74.0,74.00,65.0,74.0,Right,12,*,No,No
202,Female,3.000,F,0,AboutRt,62.0,64.00,60.0,67.0,Right,5,Same,No,No
203,Female,3.000,M,*,AboutRt,63.0,64.00,66.0,68.0,Right,10,Same,No,No
204,Male,3.000,B,15,OverWt,70.0,*,65.0,68.0,Right,8,Same,No,Yes
205,Female,3.200,M,0,AboutRt,71.0,72.00,69.0,72.0,Right,10,Same,No,No
206,Female,3.400,F,2,AboutRt,63.0,66.00,63.0,68.0,Right,18,Same,No,Yes
207,Female,3.500,F,0,AboutRt,63.0,67.00,63.0,66.0,Right,12,Same,No,No
208,Female,3.600,F,0,OverWt,62.0,67.00,64.0,66.0,Right,1,Same,No,No
209,Female,3.430,B,0,AboutRt,63.0,65.00,61.0,67.0,Right,12,Opposite,Yes,No
210,Female,3.920,F,6,AboutRt,65.0,68.00,67.0,68.0,Right,10,Opposite,No,No
211,Female,3.000,M,1,AboutRt,62.0,66.00,*,*,Right,10,Opposite,No,No
212,Female,2.900,F,0,AboutRt,63.0,65.00,65.0,*,Left,10,Opposite,Yes,No
213,Female,3.200,M,*,AboutRt,65.0,66.00,64.0,73.0,Right,10,Opposite,No,No
214,Female,3.400,M,0,AboutRt,63.0,66.00,*,*,Left,20,Opposite,No,No
215,Female,3.700,M,0,UnderWt,64.0,67.00,58.0,72.0,Right,10,Opposite,No,No
216,Female,3.400,M,10,AboutRt,68.0,69.00,68.0,72.0,Right,15,Opposite,No,No
217,Female,3.100,M,0,AboutRt,64.0,67.00,63.0,68.0,Right,10,Same,No,No
218,Female,3.000,M,0,AboutRt,61.0,64.00,62.0,67.0,Right,5,Same,No,No
219,Female,3.790,M,0,OverWt,62.0,67.00,60.0,66.0,Right,10,Same,No,No
220,Female,3.900,F,0,AboutRt,66.0,66.00,62.0,71.0,Right,10,Same,Yes,No
221,Male,2.100,B,10,AboutRt,74.0,80.00,63.0,65.0,Right,20,Same,No,No
222,Male,3.000,B,15,AboutRt,72.0,74.00,67.0,69.0,Right,10,Same,No,No
223,Male,2.060,B,30,AboutRt,72.0,75.00,66.0,72.0,Left,10,Opposite,No,Yes
224,Female,3.000,B,6,AboutRt,68.0,70.00,66.0,72.0,Right,5,Opposite,No,Yes
225,Female,3.810,M,0,AboutRt,65.0,66.00,64.0,68.0,Right,15,Same,No,No
226,Female,2.400,B,1,AboutRt,69.0,70.00,65.0,75.0,Right,8,Opposite,No,No
227,Female,2.600,M,10,AboutRt,65.0,67.00,69.0,72.0,Right,18,Opposite,No,No
228,Female,3.000,M,3,OverWt,64.0,68.00,68.0,72.0,Left,13,Opposite,No,No
229,Male,3.000,M,12,AboutRt,73.0,73.00,67.0,69.0,Right,12,Same,No,No
230,Female,3.900,M,*,AboutRt,64.0,64.00,64.0,70.0,Right,8,Same,No,No
231,Female,2.940,B,1,OverWt,67.0,67.00,62.0,71.0,Right,18,Same,No,No
232,Male,2.500,B,30,OverWt,72.0,76.00,63.0,68.0,Right,15,Opposite,No,Yes
233,Male,2.500,B,12,AboutRt,73.0,75.00,63.0,67.0,Right,15,Opposite,No,Yes
234,Male,2.700,B,*,UnderWt,74.0,74.00,63.0,74.0,Right,17,Same,No,Yes
235,Female,3.200,B,0,AboutRt,68.0,68.00,65.0,67.0,Right,10,Same,No,No
236,Female,2.670,B,1,OverWt,73.0,70.00,68.0,76.0,Right,10,Same,Yes,No
237,Male,2.000,B,6,AboutRt,68.0,75.00,64.0,66.0,Right,18,Same,No,No
238,Male,2.460,B,6,AboutRt,63.0,68.00,57.0,66.0,Right,19,Same,No,No
